{
    "lpkg": [
        {
            "name": "assaultcube",
            "package": "https://gitlab.com/loc-os_linux/lpkg64bit/-/raw/main/assaultcube-1.3.0.2-1.lpkg",
            "version": "1.3.0.2",
            "icon": "https://a.fsdn.com/allura/p/actiongame/icon?1430676874",
            "size": "55.65MiB",
            "description": "FREE, multiplayer, first-person shooter game, based on the CUBE engine",
            "web": "https://assault.cubers.net/",
            "mantainer": "Nico (Locos por Linux)",
            "license": "GPLv2",
            "screenshot": "https://gitlab.com/loc-os_linux/lpkgindex/-/raw/master/public/res/bg/cube.png",
            "dependencies": "libsdl-mixer1.2"
        },{
            "name": "balenaetcher",
            "package": "https://gitlab.com/loc-os_linux/lpkg64bit/-/raw/main/balenaetcher-1.12.6-1.lpkg",
            "version": "1.12.6",
            "icon": "https://github.com/balena-io/etcher/raw/master/assets/icon.png",
            "size": "218.2MiB",
            "description": "Flash OS images to SD cards & USB drives, safely and easily",
            "web": "https://www.balena.io/etcher/",
            "mantainer": "Nico (Locos por Linux)",
            "license": "Apache 2.0",
            "screenshot": "https://gitlab.com/locosporlinux/lpkg-list/-/raw/main/assets/screenshots/balenaetcher.png",
            "dependencies": ""
        },
        {
            "name": "brave",
            "package": "https://gitlab.com/loc-os_linux/lpkg64bit/-/raw/main/brave_browser-1.56.8-1.lpkg",
            "version": "1.56.8",
            "icon": "https://brave.com/static-assets/images/brave-release-badge.png",
            "size": "327.2MiB",
            "description": "Navegador web basado en chromium, ha ganado popularidad ultimamente gracias a su uso de recursos y opciones",
            "web": "https://brave.com/",
            "mantainer": "Nico (Locos por Linux)",
            "license": "MPL 2.0",
            "screenshot": "https://gitlab.com/locosporlinux/lpkg-list/-/raw/main/assets/screenshots/brave.png",
            "dependencies": ""
        },
        {
            "name": "bubblegum",
            "package": "https://gitlab.com/loc-os_linux/lpkg64bit/-/raw/main/bubblegum-1.0-1.lpkg",
            "version": "1.0",
            "icon": "https://gitlab.com/loc-os_linux/lpkgindex/-/raw/master/public/res/logo/bubblegum.png",
            "size": "45.18MiB",
            "description": "Plataformas 2D y Puzzles, eres una goma de mascar que tiene que agarrar llaves y escapar",
            "web": "No disponible",
            "mantainer": "Nico (Locos por Linux)",
            "license": "GPLv2",
            "screenshot": "https://gitlab.com/loc-os_linux/lpkgindex/-/raw/master/public/res/bg/bubblegum.png",
            "dependencies": ""
        },
        {
            "name": "clawsmail",
            "package": "https://gitlab.com/loc-os_linux/lpkg64bit/-/raw/main/clawsmail-3.19.1-1.lpkg",
            "version": "3.19.1",
            "icon": "https://upload.wikimedia.org/wikipedia/commons/3/34/ClawsMailLogo.png",
            "size": "27.39MiB",
            "description": "The user-friendly, lightweight, and fast email-client",
            "web": "https://www.claws-mail.org/",
            "mantainer": "Nico (Locos por Linux)",
            "license": "GPL",
            "screenshot": "https://www.claws-mail.org/img/screenshots/main.png",
            "dependencies": "libetpan20 libunbound8 libgnutlsxx28 libgnutls-openssl27"
        },
        {
            "name": "cube-2005",
            "package": "https://gitlab.com/loc-os_linux/lpkg64bit/-/raw/main/cube-2005_08_29-4.lpkg",
            "version": "2005_08_29",
            "icon": "https://upload.wikimedia.org/wikipedia/commons/0/0c/Cube_game_icon_green.png",
            "size": "35.46MiB",
            "description": "Cube is a free and open-source first-person shooter video game",
            "web": "http://cubeengine.com/cube.php",
            "mantainer": "Anonyzard",
            "license": "ZLIB license",
            "screenshot": "https://upload.wikimedia.org/wikipedia/commons/2/2a/Cube_screenshot_1914089.jpg",
            "dependencies": ""
        },
        {
            "name": "davegnukem",
            "package": "https://gitlab.com/loc-os_linux/lpkg64bit/-/raw/main/davegnukem-1.0.1-1.lpkg",
            "version": "1.0.1",
            "icon": "https://gitlab.com/loc-os_linux/lpkgindex/-/raw/master/public/res/logo/davegnukem.png",
            "size": "66.0MiB",
            "description": "Open source retro-style 2D scrolling platform shooter, inspired by and similar to Duke Nukem 1",
            "web": "https://djoffe.com/gnukem/",
            "mantainer": "Nico (Locos por Linux)",
            "license": "GPLv2",
            "screenshot": "https://gitlab.com/loc-os_linux/lpkgindex/-/raw/master/public/res/bg/davegnukem.png",
            "dependencies": "libsdl-mixer1.2"
        },
        {
            "name": "dday_normandy",
            "package": "https://gitlab.com/loc-os_linux/lpkg64bit/-/raw/main/dday_normandy-5.03-2.lpkg",
            "version": "5.03",
            "icon": "https://juegos.locosporlinux.com/images/page2-img6.jpg",
            "size": "523.4MiB",
            "description": "A completely free to play World War II game",
            "web": "http://ddaydev.com/site/index.php",
            "mantainer": "Nico (Locos por Linux)",
            "license": "GPLv2",
            "screenshot": "http://ddaydev.com/site/database/potm/02-2012.jpg",
            "dependencies": ""
        },
        {
            "name": "dunst",
            "package": "https://gitlab.com/loc-os_linux/lpkg64bit/-/raw/main/dunst-1.9.0-2.lpkg",
            "version": "1.9.0",
            "icon": "https://gitlab.com/locosporlinux/lpkg-list/-/raw/main/assets/icons/dunst.png",
            "size": "850.0KiB",
            "description": "A highly configurable and lightweight notification-daemon",
            "web": "https://dunst-project.org/",
            "mantainer": "Anonyzard",
            "license": "BSD license",
            "screenshot": "https://gitlab.com/locosporlinux/lpkg-list/-/raw/main/assets/screenshots/dunst.png",
	    "dependencies": ""
        },
        {
            "name": "easyupdate",
            "package": "https://gitlab.com/loc-os_linux/lpkg64bit/-/raw/main/easyupdate-0.1-1.lpkg",
            "version": "0.1",
            "icon": "https://gitlab.com/locosporlinux/lpkg-list/-/raw/main/assets/icons/easy-update.png",
            "size": "20.0KiB",
            "description": "A easy to use script for apt updates",
            "web": "https://loc-os.sourceforge.io",
            "mantainer": "Nico (Locos por Linux)",
            "license": "GPLv3",
            "screenshot": "https://gitlab.com/locosporlinux/lpkg-list/-/raw/main/assets/screenshots/easyupdate.png",
            "dependencies": ""
        },
        {
            "name": "geany",
            "package": "https://gitlab.com/loc-os_linux/lpkg64bit/-/raw/main/geany-1.38-1.lpkg",
            "version": "1.38",
            "icon": "https://upload.wikimedia.org/wikipedia/commons/0/05/Geany_logo.png",
            "size": "42.57MiB",
            "description": "Powerful, stable and lightweight programmer's text editor that provides tons of useful features without bogging down your workflow",
            "web": "https://www.geany.org/",
            "mantainer": "Nico (Locos por Linux)",
            "license": "GPLv3",
            "screenshot": "https://gitlab.com/loc-os_linux/lpkgindex/-/raw/master/public/res/bg/geany.png",
            "dependencies": ""
        },
        {
            "name": "gzdoom",
            "package": "https://gitlab.com/loc-os_linux/lpkg64bit/-/raw/main/gzdoom-4.8.2-3.lpkg",
            "version": "4.8.2",
            "icon": "https://gitlab.com/loc-os_linux/lpkgindex/-/raw/master/public/res/logo/gzdoom.png",
            "size": "31.43MiB",
            "description": "Port del Motor de Doom, adaptado a sistemas modernos",
            "web": "https://www.zdoom.org/",
            "mantainer": "Nico (Locos por Linux)",
            "license": "GPLv2",
            "screenshot": "https://gitlab.com/loc-os_linux/lpkgindex/-/raw/master/public/res/bg/gzdoom.png",
            "dependencies": ""
        },
        {
            "name": "icewm",
            "package": "https://gitlab.com/loc-os_linux/lpkg64bit/-/raw/main/icewm-3.3.2-1.lpkg",
            "version": "3.3.2",
            "icon": "http://66.175.235.209:27686/icewm-icon.png",
            "size": "6.3MiB",
            "description": "Gestor de ventanas de mosaico ligero y facil de usar",
            "web": "https://ice-wm.org/",
            "mantainer": "RafaCG (Linuxero Loco)",
            "license": "GPLv2",
            "screenshot": "https://gitlab.com/loc-os_linux/lpkgindex/-/raw/master/public/res/bg/icewm.png",
            "dependencies": ""
        },
        {
            "name": "infinitetux",
            "package": "https://gitlab.com/loc-os_linux/lpkg64bit/-/raw/main/infinitetux-1.1-1.lpkg",
            "version": "1.1",
            "icon": "https://gitlab.com/loc-os_linux/lpkgindex/-/raw/master/public/res/logo/itux.png",
            "size": "48.2MiB",
            "description": "InfiniteTux es un juego estilo Super Mario Bros inspirado en SuperTux, con muchas cosas divertidas para hacer",
            "web": "https://github.com/qbancoffee/infinite-tux",
            "mantainer": "Nico (Locos por Linux)",
            "license": "GPLv2",
            "screenshot": "https://gitlab.com/loc-os_linux/lpkgindex/-/raw/master/public/res/bg/itux.png",
            "dependencies": ""
        },
        {
            "name": "jgmenu",
            "package": "https://gitlab.com/loc-os_linux/lpkg64bit/-/raw/main/jgmenu-4.4.1-2.lpkg",
            "version": "4.4.1",
            "icon": "https://camo.githubusercontent.com/11b7b4e85f6903cb40b748e72ade36de9db36204031a7e1e507adc6253e846ee/68747470733a2f2f692e696d6775722e636f6d2f6c3875614256692e706e67",
            "size": "1.0MiB",
            "description": "Menu de aplicaciones alternativo personalizable",
            "web": "https://github.com/johanmalm/jgmenu",
            "mantainer": "Nico (Locos por Linux)",
            "license": "GPLv2",
            "screenshot": "https://gitlab.com/loc-os_linux/lpkgindex/-/raw/master/public/res/bg/jgmenu.png",
            "dependencies": ""
        },
        {
            "name": "leafpad",
            "package": "https://gitlab.com/loc-os_linux/lpkg64bit/-/raw/main/leafpad-0.8.17-1.lpkg",
            "version": "0.8.17",
            "icon": "http://tarot.freeshell.org/leafpad/leafpadle.png",
            "size": "740.0KiB",
            "description": "Leafpad is a simple GTK+ text editor that emphasizes simplicity",
            "web": "http://tarot.freeshell.org/leafpad/",
            "mantainer": "Nico (Locos por Linux)",
            "license": "GPL",
            "screenshot": "https://gitlab.com/loc-os_linux/lpkgindex/-/raw/master/public/res/bg/cube.png",
            "dependencies": ""
        },
        {
            "name": "megamario",
            "package": "https://gitlab.com/loc-os_linux/lpkg64bit/-/raw/main/megamario-1.7-1.lpkg",
            "version": "1.7",
            "icon": "https://gitlab.com/loc-os_linux/lpkgindex/-/raw/master/public/res/logo/megamario.png",
            "size": "5.20MiB",
            "description": "FanGame inspirado en Super Mario World",
            "web": "http://mmario.sourceforge.net/",
            "mantainer": "Nico (Locos por Linux)",
            "license": "GPLv2",
            "screenshot": "https://gitlab.com/loc-os_linux/lpkgindex/-/raw/master/public/res/bg/megamario.png",
            "dependencies": "libsdl-mixer1.2 libsdl-ttf2.0-0 libsdl-image1.2"
        },
        {
            "name": "midori",
            "package": "https://gitlab.com/loc-os_linux/lpkg64bit/-/raw/main/midori-9.0-1.lpkg",
            "version": "9.0",
            "icon": "https://f-droid.org/repo/org.midorinext.android/en-US/icon_kZSJKKmAKJcrPxhKc-_9v_47I2lFzAnzOUzykKr6iIE=.png",
            "size": "5.97MiB",
            "description": "A lightweight, fast and free web browser ",
            "web": "https://github.com/midori-browser/",
            "mantainer": "Nico (Locos por Linux)",
            "license": "LGPL-2.1",
            "screenshot": "http://gitlab.com/loc-os_linux/lpkgindex/-/raw/master/public/res/bg/midori.png",
            "dependencies": ""
        },
        {
            "name": "ncspot",
            "package": "https://gitlab.com/loc-os_linux/lpkg64bit/-/raw/main/ncspot-0.10.1-1.lpkg",
            "version": "0.10.1",
            "icon": "https://gitlab.com/locosporlinux/lpkg-list/-/raw/main/assets/icons/ncspot.png",
            "size": "16.3MiB",
            "description": "Cross-platform ncurses Spotify client written in Rust, inspired by ncmpc and the likes",
            "web": "https://github.com/hrkfdn/ncspot",
            "mantainer": "Anonyzard",
            "license": "BSD 2-Clause",
            "screenshot": "http://gitlab.com/loc-os_linux/lpkgindex/-/raw/master/public/res/bg/ncspot.png",
            "dependencies": "Spotify Premium Account"
        },
        {
            "name": "notepadqq",
            "package": "https://gitlab.com/loc-os_linux/lpkg64bit/-/raw/main/notepadqq-2.0.0-2.lpkg",
            "version": "2.0.0",
            "icon": "https://user-images.githubusercontent.com/4319621/36906314-e3f99680-1e35-11e8-90fd-f959c9641f36.png",
            "size": "13.23MiB",
            "description": "A simple, general-purpose editor for Linux",
            "web": "https://notepadqq.com/",
            "mantainer": "Nico (Locos por Linux)",
            "license": "GPLv3",
            "screenshot": "https://camo.githubusercontent.com/b8229966ffe4a976c76f6be10ecab5a9b10bfc579eaf53900732174f3c35b470/68747470733a2f2f6e6f746570616471712e636f6d2f732f696d616765732f736e617073686f74312e706e67",
            "dependencies": "libqt5webenginewidgets5"
        },
        {
            "name": "opensonic",
            "package": "https://gitlab.com/loc-os_linux/lpkg64bit/-/raw/main/opensonic-1.4-1.lpkg",
            "version": "1.4",
            "icon": "http://gitlab.com/loc-os_linux/lpkgindex/-/raw/master/public/res/logo/osonic.png",
            "size": "15.8MiB",
            "description": "An open-source game based on the \"Sonic the Hedgehog\" universe",
            "web": "https://opensnc.sourceforge.net/home/index.php",
            "mantainer": "Nico (Locos por Linux)",
            "license": "GPLv2",
            "screenshot": "http://gitlab.com/loc-os_linux/lpkgindex/-/raw/master/public/res/bg/osonic.png",
            "dependencies": "liblogg4.4 libjpgalleg4.4 libloadpng4.4 liballegro4.4"
        },
        {
            "name": "opensurge",
            "package": "https://gitlab.com/loc-os_linux/lpkg64bit/-/raw/main/opensurge-0.5.2.1-1.lpkg",
            "version": "0.5.2.1",
            "icon": "http://gitlab.com/loc-os_linux/lpkgindex/-/raw/master/public/res/logo/surge.png",
            "size": "34.7MiB",
            "description": "A fun 2D retro platformer inspired by Sonic games and a game creation system",
            "web": "https://opensurge2d.org/",
            "mantainer": "Nico (Locos por Linux)",
            "license": "GPLv3",
            "screenshot": "http://gitlab.com/loc-os_linux/lpkgindex/-/raw/master/public/res/bg/surge.png",
            "dependencies": "libsurgescript0.5.4.4 liballegro5.2 liballegro-image5.2 liballegro-ttf5.2 liballegro-acodec5.2 liballegro-dialog5.2"
        },
        {
            "name": "opentyrian",
            "package": "https://gitlab.com/loc-os_linux/lpkg64bit/-/raw/main/opentyrian-2.1-1.lpkg",
            "version": "2.1",
            "icon": "http://gitlab.com/loc-os_linux/lpkgindex/-/raw/master/public/res/logo/tyrian.png",
            "size": "11.7MiB",
            "description": "An open-source port of the DOS shoot-em-up Tyrian",
            "web": "https://github.com/opentyrian/opentyrian",
            "mantainer": "Nico (Locos por Linux)",
            "license": "GPLv2",
            "screenshot": "http://gitlab.com/loc-os_linux/lpkgindex/-/raw/master/public/res/bg/tyrian.png",
            "dependencies": "libsdl2-net-2.0-0"
        },
        {
            "name": "ppsspp",
            "package": "https://gitlab.com/loc-os_linux/lpkg64bit/-/raw/main/ppsspp-1.14.4-1.lpkg",
            "version": "1.14.4",
            "icon": "https://raw.githubusercontent.com/hrydgard/ppsspp/master/icons/icon-114.png",
            "size": "47.35MiB",
            "description": "A free and open-source PSP emulator",
            "web": "https://ppsspp.org",
            "mantainer": "Anonyzard",
            "license": "GPLv2",
            "screenshot": "https://gitlab.com/locosporlinux/lpkg-list/-/raw/main/assets/screenshots/ppsspp.png",
            "dependencies": ""
        },{
            "name": "qemu",
            "package": "https://gitlab.com/loc-os_linux/lpkg64bit/-/raw/main/qemu-7.1.0-1.lpkg",
            "version": "7.1.0",
            "icon": "https://gitlab.com/locosporlinux/lpkg-list/-/raw/main/assets/icons/qemu.png",
            "size": "666.7MiB",
            "description": "A generic and open source machine emulator and virtualizer",
            "web": "https://www.qemu.org/",
            "mantainer": "CODEHEX4EVER",
            "license": "GPLv2",
            "screenshot": "https://www.qemu.org/screenshots/800px-Qemu_linux.png",
            "dependencies": ""
        },
        {
            "name": "roxterm",
            "package": "https://gitlab.com/loc-os_linux/lpkg64bit/-/raw/main/roxterm-3.5.2-2.lpkg",
            "version": "3.5.2",
            "icon": "https://a.fsdn.com/allura/p/roxterm/icon?1347656767",
            "size": "1.0MiB",
            "description": "A highly configurable terminal emulator",
            "web": "https://roxterm.sourceforge.net/",
            "mantainer": "Nico (Locos por Linux)",
            "license": "GPLv3",
            "screenshot": "http://gitlab.com/loc-os_linux/lpkgindex/-/raw/master/public/res/bg/roxterm.png",
            "dependencies": ""
        },
        {
            "name": "sakura",
            "package": "https://gitlab.com/loc-os_linux/lpkg64bit/-/raw/main/sakura-3.8.5-1.lpkg",
            "version": "3.8.5",
            "icon": "https://launchpadlibrarian.net/40502385/terminal-tango-64x64.png",
            "size": "250.0KiB",
            "description": "Simple but powerful libvte based terminal emulator",
            "web": "https://launchpad.net/sakura",
            "mantainer": "RafaCG (Linuxero Loco)",
            "license": "GPLv3",
            "screenshot": "http://gitlab.com/loc-os_linux/lpkgindex/-/raw/master/public/res/bg/sakura.png",
            "dependencies": ""
        },
        {
            "name": "scrcpy",
            "package": "https://gitlab.com/loc-os_linux/lpkg64bit/-/raw/main/scrcpy-2.1-2.lpkg",
            "version": "2.1",
            "icon": "https://github.com/Genymobile/scrcpy/raw/master/app/data/icon.png",
            "size": "312.0KiB",
            "description": "Display and control your Android device",
            "web": "https://github.com/Genymobile/scrcpy",
            "mantainer": "Anonyzard",
            "license": "Apache License 2.0",
            "screenshot": "http://gitlab.com/loc-os_linux/lpkgindex/-/raw/master/public/res/bg/scrcpy.png",
            "dependencies": "adb"
        },
        {
            "name": "shotcut",
            "package": "https://gitlab.com/loc-os_linux/lpkg64bit/-/raw/main/shotcut-22.06-2.lpkg",
            "version": "22.06",
            "icon": "http://gitlab.com/loc-os_linux/lpkgindex/-/raw/master/public/res/logo/shotcut.png",
            "size": "439.38MiB",
            "description": "Free, open source, cross-platform video editor",
            "web": "https://www.shotcut.org/",
            "mantainer": "Rrivillox",
            "license": "GPLv3",
            "screenshot": "http://gitlab.com/loc-os_linux/lpkgindex/-/raw/master/public/res/bg/shotcut.png",
            "dependencies": ""
        },
        {
            "name": "smokinguns",
            "package": "https://gitlab.com/loc-os_linux/lpkg64bit/-/raw/main/smokinguns-1.1-2.lpkg",
            "version": "1.1",
            "icon": "https://juegos.locosporlinux.com/images/page1-smokin.jpg",
            "size": "401.6MiB",
            "description": "First-person shooter in a western-like 3D world",
            "web": "https://www.smokin-guns.org/",
            "mantainer": "Nico (Locos por Linux)",
            "license": "GPL",
            "screenshot": "https://gitlab.com/locosporlinux/lpkg-list/-/raw/main/assets/screenshots/smokinguns.jpg",
            "dependencies": ""
        },
        {
            "name": "snes9x",
            "package": "https://gitlab.com/loc-os_linux/lpkg64bit/-/raw/main/snes9x-1.61-1.lpkg",
            "version": "1.61",
            "icon": "http://gitlab.com/loc-os_linux/lpkgindex/-/raw/master/public/res/logo/snes9x.png",
            "size": "39.16MiB",
            "description": "Portable Super Nintendo Entertainment System (TM) emulator",
            "web": "http://www.snes9x.com/",
            "mantainer": "CODEHEX4EVER",
            "license": "Custom",
            "screenshot": "http://gitlab.com/loc-os_linux/lpkgindex/-/raw/master/public/res/bg/snes9x.png",
            "dependencies": ""
        },
        {
            "name": "spacecadetpinball",
            "package": "https://gitlab.com/loc-os_linux/lpkg64bit/-/raw/main/spacecadetpinball-2.0.1-1.lpkg",
            "version": "2.0.1",
            "icon": "http://gitlab.com/loc-os_linux/lpkgindex/-/raw/master/public/res/logo/pinball.png",
            "size": "10.05MiB",
            "description": "Reverse engineering of 3D Pinball for Windows - Space Cadet, a game bundled with Windows",
            "web": "https://github.com/k4zmu2a/SpaceCadetPinball",
            "mantainer": "Anonyzard",
            "license": "MIT",
            "screenshot": "http://gitlab.com/loc-os_linux/lpkgindex/-/raw/master/public/res/bg/pinball.png",
            "dependencies": "libsdl-mixer1.2"
        },
        {
            "name": "srb2",
            "package": "https://gitlab.com/loc-os_linux/lpkg64bit/-/raw/main/srb2-2.2.10-1.lpkg",
            "version": "2.2.10",
            "icon": "http://gitlab.com/loc-os_linux/lpkgindex/-/raw/master/public/res/logo/srb2.png",
            "size": "171.52MiB",
            "description": "3D open-source Sonic the Hedgehog fangame built using a modified version of the Doom Legacy port of Doom",
            "web": "https://www.srb2.org/",
            "mantainer": "CODEHEX4EVER",
            "license": "GPLv2",
            "screenshot": "http://gitlab.com/loc-os_linux/lpkgindex/-/raw/master/public/res/bg/srb2.png",
            "dependencies": "libsdl-mixer1.2"
        },
        {
            "name": "stacer",
            "package": "https://gitlab.com/loc-os_linux/lpkg64bit/-/raw/main/stacer-1.1.0-4.lpkg",
            "version": "1.1.0",
            "icon": "https://oguzhaninan.github.io/Stacer-Web/images/stacer.png",
            "size": "75.27MiB",
            "description": "Open source system optimizer and application monitor",
            "web": "https://oguzhaninan.github.io/Stacer-Web/",
            "mantainer": "Nico (Locos por Linux)",
            "license": "GPLv3",
            "screenshot": "http://gitlab.com/loc-os_linux/lpkgindex/-/raw/master/public/res/bg/stacer.png",
            "dependencies": ""
        },
        {
            "name": "urban-brawl",
            "package": "https://gitlab.com/loc-os_linux/lpkg64bit/-/raw/main/urban-brawl-2.lpkg",
            "version": "2",
            "icon": "http://gitlab.com/loc-os_linux/lpkgindex/-/raw/master/public/res/logo/urbanbrawl.png",
            "size": "217.8MiB",
            "description": "Port del Motor de Doom, adaptado a sistemas modernos con diversas mejoras",
            "web": "https://action.mancubus.net/",
            "mantainer": "Nico (Locos por Linux)",
            "license": "Freeware",
            "screenshot": "http://gitlab.com/loc-os_linux/lpkgindex/-/raw/master/public/res/bg/urbanbrawl.png",
            "dependencies": "GZDoom | ZDoom"
        },
        {
            "name": "ventoy",
            "package": "https://gitlab.com/loc-os_linux/lpkg64bit/-/raw/main/ventoy-1.0.77-3.lpkg",
            "version": "1.0.77",
            "icon": "http://gitlab.com/loc-os_linux/lpkgindex/-/raw/master/public/res/logo/ventoy.png",
            "size": "17.69MiB",
            "description": "Open source tool to create bootable USB drive",
            "web": "https://www.ventoy.net/",
            "mantainer": "ItzSelenux",
            "license": "GPLv3",
            "screenshot": "http://gitlab.com/loc-os_linux/lpkgindex/-/raw/master/public/res/bg/ventoy.png",
            "dependencies": ""
        },
        {
            "name": "whatsappforlinux",
            "package": "https://gitlab.com/loc-os_linux/lpkg64bit/-/raw/main/whatsappforlinux-1.4.6-1.lpkg",
            "version": "1.4.6",
            "icon": "https://github.com/eneshecan/whatsapp-for-linux/raw/master/resource/image/icons/hicolor/64x64/apps/com.github.eneshecan.WhatsAppForLinux.png",
            "size": "310.0KiB",
            "description": "An unofficial WhatsApp desktop application for Linux",
            "web": "https://github.com/eneshecan/whatsapp-for-linux",
            "mantainer": "Nico (Locos por Linux)",
            "license": "GPLv3",
            "screenshot": "https://github.com/eneshecan/whatsapp-for-linux/raw/master/screenshot/app.png",
            "dependencies": ""
        },
        {
            "name": "youtubedl_gui",
            "package": "https://gitlab.com/loc-os_linux/lpkg64bit/-/raw/main/youtubedl_gui-3.0-1.lpkg",
            "version": "3.0.1",
            "icon": "https://github.com/madmaxms/iconpack-obsidian/raw/master/Obsidian/apps/48/youtube.png",
            "size": "170.0KiB",
            "description": "A cross-platform GUI for youtube-dl made in Electron and node.js",
            "web": "https://github.com/jely2002/youtube-dl-gui",
            "mantainer": "Nico (Locos por Linux)",
            "license": "AGPLv3",
            "screenshot": "http://gitlab.com/loc-os_linux/lpkgindex/-/raw/master/public/res/bg/ytdl.png",
            "dependencies": ""
        },
        {
            "name": "ytfzf",
            "package": "https://gitlab.com/loc-os_linux/lpkg64bit/-/raw/main/ytfzf-2.5.5-1.lpkg",
            "version": "2.5.5",
            "icon": "http://gitlab.com/loc-os_linux/lpkgindex/-/raw/master/public/res/logo/ytfzf.png",
            "size": "2.96MiB",
            "description": "A posix script to find and watch youtube videos from the terminal",
            "web": "https://github.com/pystardust/ytfzf/",
            "mantainer": "Anonyzard",
            "license": "GPLv3",
            "screenshot": "http://gitlab.com/loc-os_linux/lpkgindex/-/raw/master/public/res/bg/ytfzf.png",
            "dependencies": ""
        },
        {
            "name": "zdoom",
            "package": "https://gitlab.com/loc-os_linux/lpkg64bit/-/raw/main/zdoom-2.8.1-2.lpkg",
            "version": "2.8.1",
            "icon": "http://gitlab.com/loc-os_linux/lpkgindex/-/raw/master/public/res/logo/zdoom.png",
            "size": "9.04MiB",
            "description": "Port del Motor de Doom, adaptado a sistemas modernos (Legacy)",
            "web": "https://www.zdoom.org",
            "mantainer": "Nico (Locos por Linux)",
            "license": "GPLv2",
            "screenshot": "http://gitlab.com/loc-os_linux/lpkgindex/-/raw/master/public/res/bg/zdoom.png",
            "dependencies": ""
        }
    ]
}
